<?xml version="1.0" encoding="UTF-8" standalone="no"?>
<!-- Created with Inkscape (http://www.inkscape.org/) -->

<svg
   xmlns:dc="http://purl.org/dc/elements/1.1/"
   xmlns:cc="http://creativecommons.org/ns#"
   xmlns:rdf="http://www.w3.org/1999/02/22-rdf-syntax-ns#"
   xmlns:svg="http://www.w3.org/2000/svg"
   xmlns="http://www.w3.org/2000/svg"
   xmlns:sodipodi="http://sodipodi.sourceforge.net/DTD/sodipodi-0.dtd"
   xmlns:inkscape="http://www.inkscape.org/namespaces/inkscape"
   width="143.52357mm"
   height="143.52357mm"
   viewBox="0 0 143.52358 143.52358"
   version="1.1"
   id="svg8"
   inkscape:version="0.92.1 r15371"
   sodipodi:docname="string.svg"
   inkscape:export-filename="/home/s/Desktop/Repositories/bow-simulator/resources/icons/model-tree/string.png"
   inkscape:export-xdpi="8.494772"
   inkscape:export-ydpi="8.494772">
  <defs
     id="defs2" />
  <sodipodi:namedview
     id="base"
     pagecolor="#ffffff"
     bordercolor="#666666"
     borderopacity="1.0"
     inkscape:pageopacity="0.0"
     inkscape:pageshadow="2"
     inkscape:zoom="0.9899495"
     inkscape:cx="364.10321"
     inkscape:cy="305.5204"
     inkscape:document-units="mm"
     inkscape:current-layer="layer1"
     showgrid="false"
     inkscape:window-width="1920"
     inkscape:window-height="997"
     inkscape:window-x="0"
     inkscape:window-y="0"
     inkscape:window-maximized="1"
     fit-margin-top="0"
     fit-margin-left="0"
     fit-margin-right="0"
     fit-margin-bottom="0" />
  <metadata
     id="metadata5">
    <rdf:RDF>
      <cc:Work
         rdf:about="">
        <dc:format>image/svg+xml</dc:format>
        <dc:type
           rdf:resource="http://purl.org/dc/dcmitype/StillImage" />
        <dc:title></dc:title>
      </cc:Work>
    </rdf:RDF>
  </metadata>
  <g
     inkscape:label="Layer 1"
     inkscape:groupmode="layer"
     id="layer1"
     transform="translate(-68.163596,-5.4871451)">
    <path
       style="fill:#ffaa06;fill-opacity:1;stroke:#000000;stroke-width:6;stroke-linecap:butt;stroke-linejoin:miter;stroke-miterlimit:4;stroke-dasharray:none;stroke-opacity:1"
       d="m 76.710392,133.16377 27.658488,-29.73962 c 24.99074,-30.647391 22.34901,-48.388214 31.67549,-69.150095 29.45172,-62.884254 96.28084,4.550733 50.24668,40.357698 -21.20972,14.333905 -39.44976,14.800224 -63.94229,39.836587 l -30.976532,32.47162"
       id="path4489"
       inkscape:connector-curvature="0"
       sodipodi:nodetypes="cccccc"
       inkscape:export-filename="/home/s/Desktop/Repositories/bow-simulator/resources/icons/model-tree/path4489.png"
       inkscape:export-xdpi="35"
       inkscape:export-ydpi="35" />
    <path
       style="fill:#ffffff;fill-opacity:1;stroke:#000000;stroke-width:6;stroke-linecap:butt;stroke-linejoin:miter;stroke-miterlimit:4;stroke-dasharray:none;stroke-opacity:1"
       d="m 135.01404,84.15232 c 6.43106,-11.134648 6.95836,-23.482042 15.01376,-40.629916 6.24818,-12.958579 18.32523,-21.65429 28.05274,-13.583478 6.29104,5.219612 10.63423,13.880662 0.66993,26.979137 -15.93032,16.870911 -33.46186,19.981163 -43.73643,27.234257 z"
       id="path4506"
       inkscape:connector-curvature="0"
       sodipodi:nodetypes="ccscc"
       inkscape:export-filename="/home/s/Desktop/Repositories/bow-simulator/resources/icons/model-tree/path4489.png"
       inkscape:export-xdpi="35"
       inkscape:export-ydpi="35" />
  </g>
</svg>
