<?xml version="1.0" encoding="UTF-8" standalone="no"?>
<svg
   xmlns:dc="http://purl.org/dc/elements/1.1/"
   xmlns:cc="http://creativecommons.org/ns#"
   xmlns:rdf="http://www.w3.org/1999/02/22-rdf-syntax-ns#"
   xmlns:svg="http://www.w3.org/2000/svg"
   xmlns="http://www.w3.org/2000/svg"
   xmlns:sodipodi="http://sodipodi.sourceforge.net/DTD/sodipodi-0.dtd"
   xmlns:inkscape="http://www.inkscape.org/namespaces/inkscape"
   version="1.0"
   width="661.33331"
   height="661.33331"
   viewBox="0 0 62 62"
   id="svg0"
   sodipodi:version="0.32"
   inkscape:version="0.92.1 r15371"
   sodipodi:docname="dialog-information.svg"
   inkscape:output_extension="org.inkscape.output.svg.inkscape"
   inkscape:export-filename="/home/s/Desktop/Repositories/bow-simulator/resources/icons/dialog-information.png"
   inkscape:export-xdpi="6.967742"
   inkscape:export-ydpi="6.967742">
  <metadata
     id="metadata19">
    <rdf:RDF>
      <cc:Work
         rdf:about="">
        <dc:format>image/svg+xml</dc:format>
        <dc:type
           rdf:resource="http://purl.org/dc/dcmitype/StillImage" />
      </cc:Work>
    </rdf:RDF>
  </metadata>
  <sodipodi:namedview
     inkscape:window-height="997"
     inkscape:window-width="1920"
     inkscape:pageshadow="2"
     inkscape:pageopacity="0.0"
     guidetolerance="10.0"
     gridtolerance="10.0"
     objecttolerance="10.0"
     borderopacity="1.0"
     bordercolor="#666666"
     pagecolor="#ffffff"
     id="base"
     inkscape:zoom="0.97741935"
     inkscape:cx="476.4507"
     inkscape:cy="374.05484"
     inkscape:window-x="0"
     inkscape:window-y="0"
     inkscape:current-layer="svg0"
     showgrid="false"
     inkscape:window-maximized="1" />
  <defs
     id="defs4">
    <radialGradient
       id="shadowGradient">
      <stop
         id="stop17"
         style="stop-color:#c0c0c0;stop-opacity:1"
         offset="0" />
      <stop
         id="stop19"
         style="stop-color:#c0c0c0;stop-opacity:1"
         offset="0.88" />
      <stop
         id="stop21"
         style="stop-color:#c0c0c0;stop-opacity:0"
         offset="1" />
    </radialGradient>
    <linearGradient
       x1="42.986301"
       y1="7.0127001"
       x2="22.0144"
       y2="51.987099"
       id="fieldGradient"
       gradientUnits="userSpaceOnUse">
      <stop
         id="stop7"
         style="stop-color:#9ecefe;stop-opacity:1"
         offset="0" />
      <stop
         id="stop9"
         style="stop-color:#1388ee;stop-opacity:1"
         offset="1" />
    </linearGradient>
    <linearGradient
       x1="54.509937"
       y1="41.179295"
       x2="9.5471001"
       y2="16.248501"
       id="edgeGradient"
       gradientUnits="userSpaceOnUse">
      <stop
         id="stop12"
         style="stop-color:#1976d9;stop-opacity:1;"
         offset="0" />
      <stop
         id="stop14"
         style="stop-color:#3e73d3;stop-opacity:1"
         offset="1" />
    </linearGradient>
  </defs>
  <circle
     cx="32.5"
     cy="29.5"
     r="26.5"
     transform="matrix(1.0648,0,0,1.064822,-2.1,1.0864)"
     id="shadow"
     style="fill:url(#shadowGradient);stroke:none" />
  <circle
     cx="31"
     cy="31"
     r="25.799999"
     id="field"
     style="fill:url(#fieldGradient);fill-opacity:1;stroke:url(#edgeGradient);stroke-width:2" />
  <polygon
     points="35,25 35,44 39,44 39,48 23,48 23,44 27,44 27,28 23,28 23,25 "
     id="polygon26"
     style="fill:#ffffff;stroke:none" />
  <circle
     cx="31"
     cy="17"
     r="4"
     id="circle28"
     style="fill:#ffffff;stroke:none" />
  <path
     sodipodi:type="arc"
     style="opacity:0.07999998;fill:#ffffff;fill-opacity:1;fill-rule:nonzero;stroke-width:2;stroke-linecap:square;stroke-linejoin:miter;stroke-miterlimit:4;stroke-dasharray:none;stroke-dashoffset:0;stroke-opacity:1"
     id="path3146"
     sodipodi:cx="30.370558"
     sodipodi:cy="30.527918"
     sodipodi:rx="24.705584"
     sodipodi:ry="24.705584"
     d="M 53.280498,39.774565 A 24.705584,24.705584 0 0 1 21.238901,53.483935 24.705584,24.705584 0 0 1 7.3690417,21.511482 24.705584,24.705584 0 0 1 39.271547,7.4814809 24.705584,24.705584 0 0 1 53.461336,39.313236"
     sodipodi:start="0.3836133"
     sodipodi:end="0.36355649"
     sodipodi:open="true"
     transform="matrix(1.0047727,0,0,1.0047762,0.4845556,0.2869342)" />
</svg>
